[
{
"totalCounter":"1",
"id":"*001*01",
"customerName":"No customer",
"fileName":"consolidate.xlsx",
"sheetName":"Sheet1",
"cells":{
"$A$1":"title",
"$B$1":"value",
"$E$1":"value",
"$A$2":"aa",
"$B$2":"5",
"$D$2":"aa",
"$E$2":"15",
"$A$3":"bb",
"$B$3":"2",
"$D$3":"bb",
"$E$3":"4",
"$A$4":"cc",
"$B$4":"3",
"$D$4":"cc",
"$E$4":"3",
"$A$5":"aa",
"$B$5":"5",
"$D$5":"ee",
"$E$5":"8",
"$A$6":"bb",
"$B$6":"2",
"$D$6":"ff",
"$E$6":"3",
"$A$7":"ee",
"$B$7":"8",
"$A$8":"ff",
"$B$8":"3",
"$A$9":"aa",
"$B$9":"5"}},
{
"totalCounter":"2",
"id":"*002*01",
"customerName":"No customer",
"fileName":"filter formula.xlsx",
"sheetName":"Sheet1",
"cells":{
"$A$1":"aa",
"$B$1":"5",
"$D$1":"aa",
"$E$1":"aa",
"$F$1":"5",
"$A$2":"bb",
"$B$2":"2",
"$E$2":"aa",
"$F$2":"5",
"$A$3":"cc",
"$B$3":"3",
"$E$3":"aa",
"$F$3":"5",
"$A$4":"aa",
"$B$4":"5",
"$A$5":"bb",
"$B$5":"2",
"$A$6":"ee",
"$B$6":"8",
"$A$7":"ff",
"$B$7":"3",
"$A$8":"aa",
"$B$8":"5"}},
{
"totalCounter":"3",
"id":"*003*01",
"customerName":"sw-1",
"fileName":"Book1.xlsx",
"sheetName":"Sheet1",
"cells":{
"$D$14":"Bu bir testtir. Islemin sonucu: 30"}},
]